tb_stopWatchCount.vcd
$date
	Sun Nov 06 14:45:30 2016
$end
$version
	Icarus Verilog
$end
$timescale
	1ns
$end
$scope module tb_stopWatchCount $end
$var wire 1 ! tcascade $end
$var wire 4 " tminute [3:0] $end
$var wire 4 # toneSecond [3:0] $end
$var wire 4 $ ttenSecond [3:0] $end
$var wire 4 % ttenthSecond [3:0] $end
$var reg 1 & tclk $end
$var reg 1 ' tenable $end
$var reg 1 ( treset $end
$var reg 1 ) tup $end
$scope module dut $end
$var wire 1 ! cascade $end
$var wire 1 * clk $end
$var wire 1 + enable $end
$var wire 4 , minute [3:0] $end
$var wire 4 - oneSecond [3:0] $end
$var wire 1 . oneToTen $end
$var wire 1 / reset $end
$var wire 4 0 tenSecond [3:0] $end
$var wire 1 1 tenToMin $end
$var wire 4 2 tenthSecond [3:0] $end
$var wire 1 3 tenthToOne $end
$var wire 1 4 up $end
$scope module tenthSec $end
$var wire 1 * clk $end
$var wire 1 + en $end
$var wire 1 3 nextdecen $end
$var wire 1 / reset $end
$var wire 1 4 up $end
$var reg 4 5 cnt [3:0] $end
$var reg 4 6 ncnt [3:0] $end
$upscope $end
$scope module oneSec $end
$var wire 1 * clk $end
$var wire 1 3 en $end
$var wire 1 . nextdecen $end
$var wire 1 / reset $end
$var wire 1 4 up $end
$var reg 4 7 cnt [3:0] $end
$var reg 4 8 ncnt [3:0] $end
$upscope $end
$scope module tenSec $end
$var wire 1 1 cascade $end
$var wire 1 * clk $end
$var wire 1 . en $end
$var wire 1 / reset $end
$var wire 1 4 up $end
$var reg 4 9 cnt [3:0] $end
$var reg 4 : ncnt [3:0] $end
$upscope $end
$scope module min $end
$var wire 1 * clk $end
$var wire 1 1 en $end
$var wire 1 ! nextdecen $end
$var wire 1 / reset $end
$var wire 1 4 up $end
$var reg 4 ; cnt [3:0] $end
$var reg 4 < ncnt [3:0] $end
$upscope $end
$upscope $end
$upscope $end
$enddefinitions $end
#0
$dumpvars
bx <
bx ;
bx :
bx 9
bx 8
bx 7
bx 6
bx 5
04
03
bx 2
01
bx 0
0/
0.
bx -
bx ,
0+
0*
0)
0(
0'
0&
bx %
bx $
bx #
bx "
0!
$end
#10
1&
1*
#20
0&
0*
1(
1/
#30
b1001 <
b101 :
b1001 8
b1001 6
b0 ;
b0 "
b0 ,
b0 9
b0 $
b0 0
b0 7
b0 #
b0 -
b0 5
b0 %
b0 2
1&
1*
#40
0&
0*
#50
1&
1*
#60
1!
11
1.
13
0&
0*
1'
1+
#70
1&
1*
#80
0&
0*
#90
1&
1*
#100
0&
0*
#110
1&
1*
#120
03
0.
01
0!
b1 <
b1 :
b1 8
b1 6
0&
0*
1)
14
0(
0/
#130
b10 6
b1 5
b1 %
b1 2
1&
1*
#140
0&
0*
#150
b11 6
b10 5
b10 %
b10 2
1&
1*
#160
0&
0*
#170
b100 6
b11 5
b11 %
b11 2
1&
1*
#180
0&
0*
#190
b101 6
b100 5
b100 %
b100 2
1&
1*
#200
0&
0*
#210
b110 6
b101 5
b101 %
b101 2
1&
1*
#220
0&
0*
#230
b111 6
b110 5
b110 %
b110 2
1&
1*
#240
0&
0*
#250
b1000 6
b111 5
b111 %
b111 2
1&
1*
#260
0&
0*
#270
b1001 6
b1000 5
b1000 %
b1000 2
1&
1*
#280
0&
0*
#290
13
b0 6
b1001 5
b1001 %
b1001 2
1&
1*
#300
0&
0*
#310
03
b10 8
b1 6
b1 7
b1 #
b1 -
b0 5
b0 %
b0 2
1&
1*
#320
0&
0*
#330
b10 6
b1 5
b1 %
b1 2
1&
1*
#340
0&
0*
#350
b11 6
b10 5
b10 %
b10 2
1&
1*
#360
b1001 <
b101 :
b0 8
b1 6
0&
0*
0)
04
#370
b0 6
b1 5
b1 %
b1 2
1&
1*
#380
0&
0*
#390
13
b1001 6
b0 5
b0 %
b0 2
1&
1*
#400
0&
0*
#410
0!
01
03
0.
b1000 6
b1001 8
b1001 5
b1001 %
b1001 2
b0 7
b0 #
b0 -
1&
1*
#420
0&
0*
#430
b111 6
b1000 5
b1000 %
b1000 2
1&
1*
#440
0&
0*
#450
b110 6
b111 5
b111 %
b111 2
1&
1*
#460
0&
0*
#470
b101 6
b110 5
b110 %
b110 2
1&
1*
#480
0&
0*
#490
b100 6
b101 5
b101 %
b101 2
1&
1*
#500
0&
0*
#510
b11 6
b100 5
b100 %
b100 2
1&
1*
#520
0&
0*
#530
b10 6
b11 5
b11 %
b11 2
1&
1*
#540
0&
0*
#550
b1 6
b10 5
b10 %
b10 2
1&
1*
#560
0&
0*
#570
b0 6
b1 5
b1 %
b1 2
1&
1*
#580
0&
0*
#590
1!
11
1.
13
b1001 6
b0 5
b0 %
b0 2
1&
1*
#600
0&
0*
#610
03
0.
01
0!
b1000 6
b1000 8
b100 :
b1000 <
b1001 5
b1001 %
b1001 2
b1001 7
b1001 #
b1001 -
b101 9
b101 $
b101 0
b1001 ;
b1001 "
b1001 ,
1&
1*
#620
0&
0*
#630
b111 6
b1000 5
b1000 %
b1000 2
1&
1*
#640
0&
0*
#650
b110 6
b111 5
b111 %
b111 2
1&
1*
#660
0&
0*
0'
0+
#670
1&
1*
#680
b0 <
b0 :
b0 8
b1000 6
0&
0*
1)
14
1'
1+
#690
b1001 6
b1000 5
b1000 %
b1000 2
1&
1*
#700
0&
0*
#710
1!
11
1.
13
b0 6
b1001 5
b1001 %
b1001 2
1&
1*
#720
0&
0*
#730
03
0.
01
0!
b1 6
b1 8
b1 :
b1 <
b0 5
b0 %
b0 2
b0 7
b0 #
b0 -
b0 9
b0 $
b0 0
b0 ;
b0 "
b0 ,
1&
1*
#740
0&
0*
#750
b10 6
b1 5
b1 %
b1 2
1&
1*
#760
0&
0*
#770
b11 6
b10 5
b10 %
b10 2
1&
1*
#780
0&
0*
#790
b100 6
b11 5
b11 %
b11 2
1&
1*
#800
0&
0*
#810
b101 6
b100 5
b100 %
b100 2
1&
1*
#820
0&
0*
#830
b110 6
b101 5
b101 %
b101 2
1&
1*
#840
0&
0*
#850
b111 6
b110 5
b110 %
b110 2
1&
1*
#860
0&
0*
#870
b1000 6
b111 5
b111 %
b111 2
1&
1*
#880
0&
0*
#890
b1001 6
b1000 5
b1000 %
b1000 2
1&
1*
#900
0&
0*
#910
13
b0 6
b1001 5
b1001 %
b1001 2
1&
1*
#920
0&
0*
#930
03
b1 6
b10 8
b0 5
b0 %
b0 2
b1 7
b1 #
b1 -
1&
1*
#940
0&
0*
#950
b10 6
b1 5
b1 %
b1 2
1&
1*
#960
0&
0*
#970
b11 6
b10 5
b10 %
b10 2
1&
1*
#980
0&
0*
#990
b100 6
b11 5
b11 %
b11 2
1&
1*
#1000
0&
0*
#1010
b101 6
b100 5
b100 %
b100 2
1&
1*
#1020
0&
0*
#1030
b110 6
b101 5
b101 %
b101 2
1&
1*
#1040
0&
0*
#1050
b111 6
b110 5
b110 %
b110 2
1&
1*
#1060
0&
0*
#1070
b1000 6
b111 5
b111 %
b111 2
1&
1*
#1080
0&
0*
#1090
b1001 6
b1000 5
b1000 %
b1000 2
1&
1*
#1100
0&
0*
#1110
13
b0 6
b1001 5
b1001 %
b1001 2
1&
1*
#1120
0&
0*
#1130
03
b1 6
b11 8
b0 5
b0 %
b0 2
b10 7
b10 #
b10 -
1&
1*
#1140
0&
0*
#1150
b10 6
b1 5
b1 %
b1 2
1&
1*
#1160
0&
0*
#1170
b11 6
b10 5
b10 %
b10 2
1&
1*
#1180
0&
0*
#1190
b100 6
b11 5
b11 %
b11 2
1&
1*
#1200
0&
0*
#1210
b101 6
b100 5
b100 %
b100 2
1&
1*
#1220
0&
0*
#1230
b110 6
b101 5
b101 %
b101 2
1&
1*
#1240
0&
0*
#1250
b111 6
b110 5
b110 %
b110 2
1&
1*
#1260
0&
0*
#1270
b1000 6
b111 5
b111 %
b111 2
1&
1*
#1280
0&
0*
#1290
b1001 6
b1000 5
b1000 %
b1000 2
1&
1*
#1300
0&
0*
#1310
13
b0 6
b1001 5
b1001 %
b1001 2
1&
1*
#1320
0&
0*
#1330
03
b1 6
b100 8
b0 5
b0 %
b0 2
b11 7
b11 #
b11 -
1&
1*
#1340
0&
0*
#1350
b10 6
b1 5
b1 %
b1 2
1&
1*
#1360
0&
0*
#1370
b11 6
b10 5
b10 %
b10 2
1&
1*
#1380
0&
0*
#1390
b100 6
b11 5
b11 %
b11 2
1&
1*
#1400
0&
0*
#1410
b101 6
b100 5
b100 %
b100 2
1&
1*
#1420
0&
0*
#1430
b110 6
b101 5
b101 %
b101 2
1&
1*
#1440
0&
0*
#1450
b111 6
b110 5
b110 %
b110 2
1&
1*
#1460
0&
0*
#1470
b1000 6
b111 5
b111 %
b111 2
1&
1*
#1480
0&
0*
#1490
b1001 6
b1000 5
b1000 %
b1000 2
1&
1*
#1500
0&
0*
#1510
13
b0 6
b1001 5
b1001 %
b1001 2
1&
1*
#1520
0&
0*
#1530
03
b1 6
b101 8
b0 5
b0 %
b0 2
b100 7
b100 #
b100 -
1&
1*
#1540
0&
0*
#1550
b10 6
b1 5
b1 %
b1 2
1&
1*
#1560
0&
0*
#1570
b11 6
b10 5
b10 %
b10 2
1&
1*
#1580
0&
0*
#1590
b100 6
b11 5
b11 %
b11 2
1&
1*
#1600
0&
0*
#1610
b101 6
b100 5
b100 %
b100 2
1&
1*
#1620
0&
0*
#1630
b110 6
b101 5
b101 %
b101 2
1&
1*
#1640
0&
0*
#1650
b111 6
b110 5
b110 %
b110 2
1&
1*
#1660
0&
0*
#1670
b1000 6
b111 5
b111 %
b111 2
1&
1*
#1680
0&
0*
#1690
b1001 6
b1000 5
b1000 %
b1000 2
1&
1*
#1700
0&
0*
#1710
13
b0 6
b1001 5
b1001 %
b1001 2
1&
1*
#1720
0&
0*
#1730
03
b1 6
b110 8
b0 5
b0 %
b0 2
b101 7
b101 #
b101 -
1&
1*
#1740
0&
0*
#1750
b10 6
b1 5
b1 %
b1 2
1&
1*
#1760
0&
0*
#1770
b11 6
b10 5
b10 %
b10 2
1&
1*
#1780
0&
0*
#1790
b100 6
b11 5
b11 %
b11 2
1&
1*
#1800
0&
0*
#1810
b101 6
b100 5
b100 %
b100 2
1&
1*
#1820
0&
0*
#1830
b110 6
b101 5
b101 %
b101 2
1&
1*
#1840
0&
0*
#1850
b111 6
b110 5
b110 %
b110 2
1&
1*
#1860
0&
0*
#1870
b1000 6
b111 5
b111 %
b111 2
1&
1*
#1880
0&
0*
#1890
b1001 6
b1000 5
b1000 %
b1000 2
1&
1*
#1900
0&
0*
#1910
13
b0 6
b1001 5
b1001 %
b1001 2
1&
1*
#1920
0&
0*
#1930
03
b1 6
b111 8
b0 5
b0 %
b0 2
b110 7
b110 #
b110 -
1&
1*
#1940
0&
0*
#1950
b10 6
b1 5
b1 %
b1 2
1&
1*
#1960
0&
0*
#1970
b11 6
b10 5
b10 %
b10 2
1&
1*
#1980
0&
0*
#1990
b100 6
b11 5
b11 %
b11 2
1&
1*
#2000
0&
0*
#2010
b101 6
b100 5
b100 %
b100 2
1&
1*
#2020
0&
0*
#2030
b110 6
b101 5
b101 %
b101 2
1&
1*
#2040
0&
0*
#2050
b111 6
b110 5
b110 %
b110 2
1&
1*
#2060
0&
0*
#2070
b1000 6
b111 5
b111 %
b111 2
1&
1*
#2080
0&
0*
#2090
b1001 6
b1000 5
b1000 %
b1000 2
1&
1*
#2100
0&
0*
#2110
13
b0 6
b1001 5
b1001 %
b1001 2
1&
1*
#2120
0&
0*
#2130
03
b1 6
b1000 8
b0 5
b0 %
b0 2
b111 7
b111 #
b111 -
1&
1*
#2140
0&
0*
#2150
b10 6
b1 5
b1 %
b1 2
1&
1*
#2160
0&
0*
#2170
b11 6
b10 5
b10 %
b10 2
1&
1*
#2180
0&
0*
#2190
b100 6
b11 5
b11 %
b11 2
1&
1*
#2200
0&
0*
#2210
b101 6
b100 5
b100 %
b100 2
1&
1*
#2220
0&
0*
#2230
b110 6
b101 5
b101 %
b101 2
1&
1*
#2240
0&
0*
#2250
b111 6
b110 5
b110 %
b110 2
1&
1*
#2260
0&
0*
#2270
b1000 6
b111 5
b111 %
b111 2
1&
1*
#2280
0&
0*
#2290
b1001 6
b1000 5
b1000 %
b1000 2
1&
1*
#2300
0&
0*
#2310
13
b0 6
b1001 5
b1001 %
b1001 2
1&
1*
#2320
0&
0*
#2330
03
b1 6
b1001 8
b0 5
b0 %
b0 2
b1000 7
b1000 #
b1000 -
1&
1*
#2340
0&
0*
#2350
b10 6
b1 5
b1 %
b1 2
1&
1*
#2360
0&
0*
#2370
b11 6
b10 5
b10 %
b10 2
1&
1*
#2380
0&
0*
#2390
b100 6
b11 5
b11 %
b11 2
1&
1*
#2400
0&
0*
#2410
b101 6
b100 5
b100 %
b100 2
1&
1*
#2420
0&
0*
#2430
b110 6
b101 5
b101 %
b101 2
1&
1*
#2440
0&
0*
#2450
b111 6
b110 5
b110 %
b110 2
1&
1*
#2460
0&
0*
#2470
b1000 6
b111 5
b111 %
b111 2
1&
1*
#2480
0&
0*
#2490
b1001 6
b1000 5
b1000 %
b1000 2
1&
1*
#2500
0&
0*
#2510
13
b0 6
b1001 5
b1001 %
b1001 2
1&
1*
#2520
0&
0*
#2530
03
0.
b1 6
b0 8
b0 5
b0 %
b0 2
b1001 7
b1001 #
b1001 -
1&
1*
#2540
0&
0*
#2550
b10 6
b1 5
b1 %
b1 2
1&
1*
#2560
0&
0*
#2570
b11 6
b10 5
b10 %
b10 2
1&
1*
#2580
0&
0*
#2590
b100 6
b11 5
b11 %
b11 2
1&
1*
#2600
0&
0*
#2610
b101 6
b100 5
b100 %
b100 2
1&
1*
#2620
0&
0*
#2630
b110 6
b101 5
b101 %
b101 2
1&
1*
#2640
0&
0*
#2650
b111 6
b110 5
b110 %
b110 2
1&
1*
#2660
0&
0*
#2670
b1000 6
b111 5
b111 %
b111 2
1&
1*
#2680
0&
0*
#2690
b1001 6
b1000 5
b1000 %
b1000 2
1&
1*
#2700
0&
0*
#2710
1.
13
b0 6
b1001 5
b1001 %
b1001 2
1&
1*
#2720
0&
0*
#2730
03
0.
b1 6
b1 8
b10 :
b0 5
b0 %
b0 2
b0 7
b0 #
b0 -
b1 9
b1 $
b1 0
1&
1*
#2740
0&
0*
#2750
b10 6
b1 5
b1 %
b1 2
1&
1*
#2760
0&
0*
#2770
b11 6
b10 5
b10 %
b10 2
1&
1*
#2780
0&
0*
#2790
b100 6
b11 5
b11 %
b11 2
1&
1*
#2800
0&
0*
#2810
b101 6
b100 5
b100 %
b100 2
1&
1*
#2820
0&
0*
#2830
b110 6
b101 5
b101 %
b101 2
1&
1*
#2840
0&
0*
#2850
b111 6
b110 5
b110 %
b110 2
1&
1*
#2860
0&
0*
#2870
b1000 6
b111 5
b111 %
b111 2
1&
1*
#2880
0&
0*
#2890
b1001 6
b1000 5
b1000 %
b1000 2
1&
1*
#2900
0&
0*
#2910
13
b0 6
b1001 5
b1001 %
b1001 2
1&
1*
#2920
0&
0*
#2930
03
b1 6
b10 8
b0 5
b0 %
b0 2
b1 7
b1 #
b1 -
1&
1*
#2940
0&
0*
#2950
b10 6
b1 5
b1 %
b1 2
1&
1*
#2960
0&
0*
#2970
b11 6
b10 5
b10 %
b10 2
1&
1*
#2980
0&
0*
#2990
b100 6
b11 5
b11 %
b11 2
1&
1*
#3000
0&
0*
#3010
b101 6
b100 5
b100 %
b100 2
1&
1*
#3020
0&
0*
#3030
b110 6
b101 5
b101 %
b101 2
1&
1*
#3040
0&
0*
#3050
b111 6
b110 5
b110 %
b110 2
1&
1*
#3060
0&
0*
#3070
b1000 6
b111 5
b111 %
b111 2
1&
1*
#3080
0&
0*
#3090
b1001 6
b1000 5
b1000 %
b1000 2
1&
1*
#3100
0&
0*
#3110
13
b0 6
b1001 5
b1001 %
b1001 2
1&
1*
#3120
0&
0*
#3130
03
b1 6
b11 8
b0 5
b0 %
b0 2
b10 7
b10 #
b10 -
1&
1*
#3140
0&
0*
#3150
b10 6
b1 5
b1 %
b1 2
1&
1*
#3160
0&
0*
#3170
b11 6
b10 5
b10 %
b10 2
1&
1*
#3180
0&
0*
#3190
b100 6
b11 5
b11 %
b11 2
1&
1*
#3200
0&
0*
#3210
b101 6
b100 5
b100 %
b100 2
1&
1*
#3220
0&
0*
#3230
b110 6
b101 5
b101 %
b101 2
1&
1*
#3240
0&
0*
#3250
b111 6
b110 5
b110 %
b110 2
1&
1*
#3260
0&
0*
#3270
b1000 6
b111 5
b111 %
b111 2
1&
1*
#3280
0&
0*
#3290
b1001 6
b1000 5
b1000 %
b1000 2
1&
1*
#3300
0&
0*
#3310
13
b0 6
b1001 5
b1001 %
b1001 2
1&
1*
#3320
0&
0*
#3330
03
b1 6
b100 8
b0 5
b0 %
b0 2
b11 7
b11 #
b11 -
1&
1*
#3340
0&
0*
#3350
b10 6
b1 5
b1 %
b1 2
1&
1*
#3360
0&
0*
#3370
b11 6
b10 5
b10 %
b10 2
1&
1*
#3380
0&
0*
#3390
b100 6
b11 5
b11 %
b11 2
1&
1*
#3400
0&
0*
#3410
b101 6
b100 5
b100 %
b100 2
1&
1*
#3420
0&
0*
#3430
b110 6
b101 5
b101 %
b101 2
1&
1*
#3440
0&
0*
#3450
b111 6
b110 5
b110 %
b110 2
1&
1*
#3460
0&
0*
#3470
b1000 6
b111 5
b111 %
b111 2
1&
1*
#3480
0&
0*
#3490
b1001 6
b1000 5
b1000 %
b1000 2
1&
1*
#3500
0&
0*
#3510
13
b0 6
b1001 5
b1001 %
b1001 2
1&
1*
#3520
0&
0*
#3530
03
b1 6
b101 8
b0 5
b0 %
b0 2
b100 7
b100 #
b100 -
1&
1*
#3540
0&
0*
#3550
b10 6
b1 5
b1 %
b1 2
1&
1*
#3560
0&
0*
#3570
b11 6
b10 5
b10 %
b10 2
1&
1*
#3580
0&
0*
#3590
b100 6
b11 5
b11 %
b11 2
1&
1*
#3600
0&
0*
#3610
b101 6
b100 5
b100 %
b100 2
1&
1*
#3620
0&
0*
#3630
b110 6
b101 5
b101 %
b101 2
1&
1*
#3640
0&
0*
#3650
b111 6
b110 5
b110 %
b110 2
1&
1*
#3660
0&
0*
#3670
b1000 6
b111 5
b111 %
b111 2
1&
1*
#3680
0&
0*
#3690
b1001 6
b1000 5
b1000 %
b1000 2
1&
1*
#3700
0&
0*
#3710
13
b0 6
b1001 5
b1001 %
b1001 2
1&
1*
#3720
0&
0*
#3730
03
b1 6
b110 8
b0 5
b0 %
b0 2
b101 7
b101 #
b101 -
1&
1*
#3740
0&
0*
#3750
b10 6
b1 5
b1 %
b1 2
1&
1*
#3760
0&
0*
#3770
b11 6
b10 5
b10 %
b10 2
1&
1*
#3780
0&
0*
#3790
b100 6
b11 5
b11 %
b11 2
1&
1*
#3800
0&
0*
#3810
b101 6
b100 5
b100 %
b100 2
1&
1*
#3820
0&
0*
#3830
b110 6
b101 5
b101 %
b101 2
1&
1*
#3840
0&
0*
#3850
b111 6
b110 5
b110 %
b110 2
1&
1*
#3860
0&
0*
#3870
b1000 6
b111 5
b111 %
b111 2
1&
1*
#3880
0&
0*
#3890
b1001 6
b1000 5
b1000 %
b1000 2
1&
1*
#3900
0&
0*
#3910
13
b0 6
b1001 5
b1001 %
b1001 2
1&
1*
#3920
0&
0*
#3930
03
b1 6
b111 8
b0 5
b0 %
b0 2
b110 7
b110 #
b110 -
1&
1*
#3940
0&
0*
#3950
b10 6
b1 5
b1 %
b1 2
1&
1*
#3960
0&
0*
#3970
b11 6
b10 5
b10 %
b10 2
1&
1*
#3980
0&
0*
#3990
b100 6
b11 5
b11 %
b11 2
1&
1*
#4000
0&
0*
#4010
b101 6
b100 5
b100 %
b100 2
1&
1*
#4020
0&
0*
#4030
b110 6
b101 5
b101 %
b101 2
1&
1*
#4040
0&
0*
#4050
b111 6
b110 5
b110 %
b110 2
1&
1*
#4060
0&
0*
#4070
b1000 6
b111 5
b111 %
b111 2
1&
1*
#4080
0&
0*
#4090
b1001 6
b1000 5
b1000 %
b1000 2
1&
1*
#4100
0&
0*
#4110
13
b0 6
b1001 5
b1001 %
b1001 2
1&
1*
#4120
0&
0*
#4130
03
b1 6
b1000 8
b0 5
b0 %
b0 2
b111 7
b111 #
b111 -
1&
1*
#4140
0&
0*
#4150
b10 6
b1 5
b1 %
b1 2
1&
1*
#4160
0&
0*
#4170
b11 6
b10 5
b10 %
b10 2
1&
1*
#4180
0&
0*
#4190
b100 6
b11 5
b11 %
b11 2
1&
1*
#4200
0&
0*
#4210
b101 6
b100 5
b100 %
b100 2
1&
1*
#4220
0&
0*
#4230
b110 6
b101 5
b101 %
b101 2
1&
1*
#4240
0&
0*
#4250
b111 6
b110 5
b110 %
b110 2
1&
1*
#4260
0&
0*
#4270
b1000 6
b111 5
b111 %
b111 2
1&
1*
#4280
0&
0*
#4290
b1001 6
b1000 5
b1000 %
b1000 2
1&
1*
#4300
0&
0*
#4310
13
b0 6
b1001 5
b1001 %
b1001 2
1&
1*
#4320
0&
0*
#4330
03
b1 6
b1001 8
b0 5
b0 %
b0 2
b1000 7
b1000 #
b1000 -
1&
1*
#4340
0&
0*
#4350
b10 6
b1 5
b1 %
b1 2
1&
1*
#4360
0&
0*
#4370
b11 6
b10 5
b10 %
b10 2
1&
1*
#4380
0&
0*
#4390
b100 6
b11 5
b11 %
b11 2
1&
1*
#4400
0&
0*
#4410
b101 6
b100 5
b100 %
b100 2
1&
1*
#4420
0&
0*
#4430
b110 6
b101 5
b101 %
b101 2
1&
1*
#4440
0&
0*
#4450
b111 6
b110 5
b110 %
b110 2
1&
1*
#4460
0&
0*
#4470
b1000 6
b111 5
b111 %
b111 2
1&
1*
#4480
0&
0*
#4490
b1001 6
b1000 5
b1000 %
b1000 2
1&
1*
#4500
0&
0*
#4510
13
b0 6
b1001 5
b1001 %
b1001 2
1&
1*
#4520
0&
0*
#4530
03
0.
b1 6
b0 8
b0 5
b0 %
b0 2
b1001 7
b1001 #
b1001 -
1&
1*
#4540
0&
0*
#4550
b10 6
b1 5
b1 %
b1 2
1&
1*
#4560
0&
0*
#4570
b11 6
b10 5
b10 %
b10 2
1&
1*
#4580
0&
0*
#4590
b100 6
b11 5
b11 %
b11 2
1&
1*
#4600
0&
0*
#4610
b101 6
b100 5
b100 %
b100 2
1&
1*
#4620
0&
0*
#4630
b110 6
b101 5
b101 %
b101 2
1&
1*
#4640
0&
0*
#4650
b111 6
b110 5
b110 %
b110 2
1&
1*
#4660
0&
0*
#4670
b1000 6
b111 5
b111 %
b111 2
1&
1*
#4680
0&
0*
#4690
b1001 6
b1000 5
b1000 %
b1000 2
1&
1*
#4700
0&
0*
#4710
1.
13
b0 6
b1001 5
b1001 %
b1001 2
1&
1*
#4720
0&
0*
#4730
03
0.
b1 6
b1 8
b11 :
b0 5
b0 %
b0 2
b0 7
b0 #
b0 -
b10 9
b10 $
b10 0
1&
1*
#4740
0&
0*
#4750
b10 6
b1 5
b1 %
b1 2
1&
1*
#4760
0&
0*
#4770
b11 6
b10 5
b10 %
b10 2
1&
1*
#4780
0&
0*
#4790
b100 6
b11 5
b11 %
b11 2
1&
1*
#4800
0&
0*
#4810
b101 6
b100 5
b100 %
b100 2
1&
1*
#4820
0&
0*
#4830
b110 6
b101 5
b101 %
b101 2
1&
1*
#4840
0&
0*
#4850
b111 6
b110 5
b110 %
b110 2
1&
1*
#4860
0&
0*
#4870
b1000 6
b111 5
b111 %
b111 2
1&
1*
#4880
0&
0*
#4890
b1001 6
b1000 5
b1000 %
b1000 2
1&
1*
#4900
0&
0*
#4910
13
b0 6
b1001 5
b1001 %
b1001 2
1&
1*
#4920
0&
0*
#4930
03
b1 6
b10 8
b0 5
b0 %
b0 2
b1 7
b1 #
b1 -
1&
1*
#4940
0&
0*
#4950
b10 6
b1 5
b1 %
b1 2
1&
1*
#4960
0&
0*
#4970
b11 6
b10 5
b10 %
b10 2
1&
1*
#4980
0&
0*
#4990
b100 6
b11 5
b11 %
b11 2
1&
1*
#5000
0&
0*
#5010
b101 6
b100 5
b100 %
b100 2
1&
1*
#5020
0&
0*
#5030
b110 6
b101 5
b101 %
b101 2
1&
1*
#5040
0&
0*
#5050
b111 6
b110 5
b110 %
b110 2
1&
1*
#5060
0&
0*
#5070
b1000 6
b111 5
b111 %
b111 2
1&
1*
#5080
0&
0*
#5090
b1001 6
b1000 5
b1000 %
b1000 2
1&
1*
#5100
0&
0*
#5110
13
b0 6
b1001 5
b1001 %
b1001 2
1&
1*
#5120
0&
0*
#5130
03
b1 6
b11 8
b0 5
b0 %
b0 2
b10 7
b10 #
b10 -
1&
1*
#5140
0&
0*
#5150
b10 6
b1 5
b1 %
b1 2
1&
1*
#5160
0&
0*
#5170
b11 6
b10 5
b10 %
b10 2
1&
1*
#5180
0&
0*
#5190
b100 6
b11 5
b11 %
b11 2
1&
1*
#5200
0&
0*
#5210
b101 6
b100 5
b100 %
b100 2
1&
1*
#5220
0&
0*
#5230
b110 6
b101 5
b101 %
b101 2
1&
1*
#5240
0&
0*
#5250
b111 6
b110 5
b110 %
b110 2
1&
1*
#5260
0&
0*
#5270
b1000 6
b111 5
b111 %
b111 2
1&
1*
#5280
0&
0*
#5290
b1001 6
b1000 5
b1000 %
b1000 2
1&
1*
#5300
0&
0*
#5310
13
b0 6
b1001 5
b1001 %
b1001 2
1&
1*
#5320
0&
0*
#5330
03
b1 6
b100 8
b0 5
b0 %
b0 2
b11 7
b11 #
b11 -
1&
1*
#5340
0&
0*
#5350
b10 6
b1 5
b1 %
b1 2
1&
1*
#5360
0&
0*
#5370
b11 6
b10 5
b10 %
b10 2
1&
1*
#5380
0&
0*
#5390
b100 6
b11 5
b11 %
b11 2
1&
1*
#5400
0&
0*
#5410
b101 6
b100 5
b100 %
b100 2
1&
1*
#5420
0&
0*
#5430
b110 6
b101 5
b101 %
b101 2
1&
1*
#5440
0&
0*
#5450
b111 6
b110 5
b110 %
b110 2
1&
1*
#5460
0&
0*
#5470
b1000 6
b111 5
b111 %
b111 2
1&
1*
#5480
0&
0*
#5490
b1001 6
b1000 5
b1000 %
b1000 2
1&
1*
#5500
0&
0*
#5510
13
b0 6
b1001 5
b1001 %
b1001 2
1&
1*
#5520
0&
0*
#5530
03
b1 6
b101 8
b0 5
b0 %
b0 2
b100 7
b100 #
b100 -
1&
1*
#5540
0&
0*
#5550
b10 6
b1 5
b1 %
b1 2
1&
1*
#5560
0&
0*
#5570
b11 6
b10 5
b10 %
b10 2
1&
1*
#5580
0&
0*
#5590
b100 6
b11 5
b11 %
b11 2
1&
1*
#5600
0&
0*
#5610
b101 6
b100 5
b100 %
b100 2
1&
1*
#5620
0&
0*
#5630
b110 6
b101 5
b101 %
b101 2
1&
1*
#5640
0&
0*
#5650
b111 6
b110 5
b110 %
b110 2
1&
1*
#5660
0&
0*
#5670
b1000 6
b111 5
b111 %
b111 2
1&
1*
#5680
0&
0*
#5690
b1001 6
b1000 5
b1000 %
b1000 2
1&
1*
#5700
0&
0*
#5710
13
b0 6
b1001 5
b1001 %
b1001 2
1&
1*
#5720
0&
0*
#5730
03
b1 6
b110 8
b0 5
b0 %
b0 2
b101 7
b101 #
b101 -
1&
1*
#5740
0&
0*
#5750
b10 6
b1 5
b1 %
b1 2
1&
1*
#5760
0&
0*
#5770
b11 6
b10 5
b10 %
b10 2
1&
1*
#5780
0&
0*
#5790
b100 6
b11 5
b11 %
b11 2
1&
1*
#5800
0&
0*
#5810
b101 6
b100 5
b100 %
b100 2
1&
1*
#5820
0&
0*
#5830
b110 6
b101 5
b101 %
b101 2
1&
1*
#5840
0&
0*
#5850
b111 6
b110 5
b110 %
b110 2
1&
1*
#5860
0&
0*
#5870
b1000 6
b111 5
b111 %
b111 2
1&
1*
#5880
0&
0*
#5890
b1001 6
b1000 5
b1000 %
b1000 2
1&
1*
#5900
0&
0*
#5910
13
b0 6
b1001 5
b1001 %
b1001 2
1&
1*
#5920
0&
0*
#5930
03
b1 6
b111 8
b0 5
b0 %
b0 2
b110 7
b110 #
b110 -
1&
1*
#5940
0&
0*
#5950
b10 6
b1 5
b1 %
b1 2
1&
1*
#5960
0&
0*
#5970
b11 6
b10 5
b10 %
b10 2
1&
1*
#5980
0&
0*
#5990
b100 6
b11 5
b11 %
b11 2
1&
1*
#6000
0&
0*
#6010
b101 6
b100 5
b100 %
b100 2
1&
1*
#6020
0&
0*
#6030
b110 6
b101 5
b101 %
b101 2
1&
1*
#6040
0&
0*
#6050
b111 6
b110 5
b110 %
b110 2
1&
1*
#6060
0&
0*
#6070
b1000 6
b111 5
b111 %
b111 2
1&
1*
#6080
0&
0*
#6090
b1001 6
b1000 5
b1000 %
b1000 2
1&
1*
#6100
0&
0*
#6110
13
b0 6
b1001 5
b1001 %
b1001 2
1&
1*
#6120
0&
0*
#6130
03
b1 6
b1000 8
b0 5
b0 %
b0 2
b111 7
b111 #
b111 -
1&
1*
#6140
0&
0*
#6150
b10 6
b1 5
b1 %
b1 2
1&
1*
#6160
0&
0*
#6170
b11 6
b10 5
b10 %
b10 2
1&
1*
#6180
0&
0*
#6190
b100 6
b11 5
b11 %
b11 2
1&
1*
#6200
0&
0*
#6210
b101 6
b100 5
b100 %
b100 2
1&
1*
#6220
0&
0*
#6230
b110 6
b101 5
b101 %
b101 2
1&
1*
#6240
0&
0*
#6250
b111 6
b110 5
b110 %
b110 2
1&
1*
#6260
0&
0*
#6270
b1000 6
b111 5
b111 %
b111 2
1&
1*
#6280
0&
0*
#6290
b1001 6
b1000 5
b1000 %
b1000 2
1&
1*
#6300
0&
0*
#6310
13
b0 6
b1001 5
b1001 %
b1001 2
1&
1*
#6320
0&
0*
#6330
03
b1 6
b1001 8
b0 5
b0 %
b0 2
b1000 7
b1000 #
b1000 -
1&
1*
#6340
0&
0*
